<?xml version="1.0" encoding="UTF-8"?>
<!DOCTYPE suite SYSTEM "http://testng.org/testng-1.0.dtd">
<suite guice-stage="DEVELOPMENT" verbose="0" name="Failed suite [Suite]">
  <test name="Test(failed)">
    <classes>
      <class name="testCase.TC03_SingleDateFull_WF1_Planned_WithReAccom">
        <methods>
          <include name="verifyServiceNumber"/>
          <include name="FlushReport"/>
          <include name="launchUrl"/>
          <include name="closeDriver"/>
          <include name="LoadTestData"/>
        </methods>
      </class> <!-- testCase.TC03_SingleDateFull_WF1_Planned_WithReAccom -->
      <class name="testCase.TC28_Toolkit_SaveAndExit">
        <methods>
          <include name="FlushReport"/>
          <include name="launchUrl"/>
          <include name="closeDriver"/>
          <include name="LoadTestData"/>
          <include name="verifyServiceNumber"/>
        </methods>
      </class> <!-- testCase.TC28_Toolkit_SaveAndExit -->
      <class name="testCase.TC07_MultiDateFull_WF1_Planned_WithReAccm">
        <methods>
          <include name="FlushReport"/>
          <include name="launchUrl"/>
          <include name="closeDriver"/>
          <include name="LoadTestData"/>
          <include name="verifyServiceNumber"/>
        </methods>
      </class> <!-- testCase.TC07_MultiDateFull_WF1_Planned_WithReAccm -->
      <class name="testCase.TC31_Search_SCRStatus">
        <methods>
          <include name="FlushReport"/>
          <include name="launchUrl"/>
          <include name="verifyServiceNumber"/>
          <include name="closeDriver"/>
          <include name="LoadTestData"/>
        </methods>
      </class> <!-- testCase.TC31_Search_SCRStatus -->
      <class name="testCase.TC17_SingleDateFull_WF2_Unplanned">
        <methods>
          <include name="FlushReport"/>
          <include name="serviceCancellation"/>
          <include name="launchUrl"/>
          <include name="closeDriver"/>
          <include name="LoadTestData"/>
        </methods>
      </class> <!-- testCase.TC17_SingleDateFull_WF2_Unplanned -->
      <class name="testCase.TC14_SingledatePartial_WF3_Planned">
        <methods>
          <include name="FlushReport"/>
          <include name="verifyServiceNumber"/>
          <include name="launchUrl"/>
          <include name="closeDriver"/>
          <include name="LoadTestData"/>
        </methods>
      </class> <!-- testCase.TC14_SingledatePartial_WF3_Planned -->
      <class name="testCase.TC29_Search_SCRId">
        <methods>
          <include name="FlushReport"/>
          <include name="launchUrl"/>
          <include name="closeDriver"/>
          <include name="LoadTestData"/>
          <include name="serviceCancellation"/>
        </methods>
      </class> <!-- testCase.TC29_Search_SCRId -->
      <class name="testCase.TC05_MultiDateFull_WF1_Planned">
        <methods>
          <include name="verifyServiceNumber"/>
          <include name="FlushReport"/>
          <include name="launchUrl"/>
          <include name="closeDriver"/>
          <include name="LoadTestData"/>
        </methods>
      </class> <!-- testCase.TC05_MultiDateFull_WF1_Planned -->
      <class name="utility.CrossBrowser">
        <methods>
          <include name="KeywardToTestCase"/>
        </methods>
      </class> <!-- utility.CrossBrowser -->
      <class name="testCase.TC13_SingleDateFull_WF3_Planned">
        <methods>
          <include name="FlushReport"/>
          <include name="launchUrl"/>
          <include name="closeDriver"/>
          <include name="LoadTestData"/>
          <include name="verifyServiceNumber"/>
        </methods>
      </class> <!-- testCase.TC13_SingleDateFull_WF3_Planned -->
      <class name="testCase.TC23_ValidateDiscardFunctionality">
        <methods>
          <include name="FlushReport"/>
          <include name="launchUrl"/>
          <include name="verifyServiceNumber"/>
          <include name="closeDriver"/>
          <include name="LoadTestData"/>
        </methods>
      </class> <!-- testCase.TC23_ValidateDiscardFunctionality -->
      <class name="testCase.TC08_MultidatePartial_WF1_Planned_WithoutReAccom">
        <methods>
          <include name="FlushReport"/>
          <include name="launchUrl"/>
          <include name="closeDriver"/>
          <include name="LoadTestData"/>
          <include name="verifyServiceNumber"/>
        </methods>
      </class> <!-- testCase.TC08_MultidatePartial_WF1_Planned_WithoutReAccom -->
      <class name="testCase.TC26_Toolkit_Assign_Reassign">
        <methods>
          <include name="FlushReport"/>
          <include name="verifyServiceNumber"/>
          <include name="launchUrl"/>
          <include name="closeDriver"/>
          <include name="LoadTestData"/>
        </methods>
      </class> <!-- testCase.TC26_Toolkit_Assign_Reassign -->
      <class name="testCase.TC06_MultidatePartial_WF1_Planned">
        <methods>
          <include name="verifyServiceNumber"/>
          <include name="FlushReport"/>
          <include name="launchUrl"/>
          <include name="closeDriver"/>
          <include name="LoadTestData"/>
        </methods>
      </class> <!-- testCase.TC06_MultidatePartial_WF1_Planned -->
      <class name="testCase.TC25_Toolkit_ClearAll">
        <methods>
          <include name="FlushReport"/>
          <include name="verifyServiceNumber"/>
          <include name="launchUrl"/>
          <include name="closeDriver"/>
          <include name="LoadTestData"/>
        </methods>
      </class> <!-- testCase.TC25_Toolkit_ClearAll -->
      <class name="testCase.TC22_ValidateAbandonFunctionality">
        <methods>
          <include name="FlushReport"/>
          <include name="verifyServiceNumber"/>
          <include name="launchUrl"/>
          <include name="closeDriver"/>
          <include name="LoadTestData"/>
        </methods>
      </class> <!-- testCase.TC22_ValidateAbandonFunctionality -->
      <class name="testCase.TC11_MultiDateFull_WF2_Planned">
        <methods>
          <include name="FlushReport"/>
          <include name="verifyServiceNumber"/>
          <include name="launchUrl"/>
          <include name="closeDriver"/>
          <include name="LoadTestData"/>
        </methods>
      </class> <!-- testCase.TC11_MultiDateFull_WF2_Planned -->
      <class name="testCase.TC12_MultidatePartial_WF2_Planned">
        <methods>
          <include name="FlushReport"/>
          <include name="launchUrl"/>
          <include name="closeDriver"/>
          <include name="LoadTestData"/>
          <include name="verifyServiceNumber"/>
        </methods>
      </class> <!-- testCase.TC12_MultidatePartial_WF2_Planned -->
      <class name="testCase.TC20_SingledatePartial_WF3_Unplanned">
        <methods>
          <include name="FlushReport"/>
          <include name="launchUrl"/>
          <include name="serviceCancellation"/>
          <include name="closeDriver"/>
          <include name="LoadTestData"/>
        </methods>
      </class> <!-- testCase.TC20_SingledatePartial_WF3_Unplanned -->
      <class name="testCase.TC33_ExportReport">
        <methods>
          <include name="FlushReport"/>
          <include name="launchUrl"/>
          <include name="closeDriver"/>
          <include name="validateDiscard"/>
          <include name="LoadTestData"/>
        </methods>
      </class> <!-- testCase.TC33_ExportReport -->
      <class name="testCase.TC34_EmailNotification">
        <methods>
          <include name="FlushReport"/>
          <include name="ValidateEmail"/>
          <include name="launchUrl"/>
          <include name="closeDriver"/>
          <include name="LoadTestData"/>
        </methods>
      </class> <!-- testCase.TC34_EmailNotification -->
      <class name="testCase.TC35_VerifyPageTitle">
        <methods>
          <include name="FlushReport"/>
          <include name="launchUrl"/>
          <include name="closeDriver"/>
          <include name="LoadTestData"/>
          <include name="VerifyTitle"/>
        </methods>
      </class> <!-- testCase.TC35_VerifyPageTitle -->
      <class name="testCase.TC09_SingleDateFull_WF2_Planned">
        <methods>
          <include name="FlushReport"/>
          <include name="Validateinvalidrole"/>
          <include name="launchUrl"/>
          <include name="closeDriver"/>
          <include name="LoadTestData"/>
        </methods>
      </class> <!-- testCase.TC09_SingleDateFull_WF2_Planned -->
      <class name="testCase.TC21_ValidateServiceNumber">
        <methods>
          <include name="FlushReport"/>
          <include name="verifyServiceNumber"/>
          <include name="launchUrl"/>
          <include name="closeDriver"/>
          <include name="LoadTestData"/>
        </methods>
      </class> <!-- testCase.TC21_ValidateServiceNumber -->
      <class name="testCase.TC30_Search_SCRName">
        <methods>
          <include name="verifyServiceNumber"/>
          <include name="FlushReport"/>
          <include name="launchUrl"/>
          <include name="closeDriver"/>
          <include name="LoadTestData"/>
        </methods>
      </class> <!-- testCase.TC30_Search_SCRName -->
      <class name="testCase.TC10_SingledatePartial_WF2_Planned">
        <methods>
          <include name="FlushReport"/>
          <include name="ValidateSuperuserlogin"/>
          <include name="launchUrl"/>
          <include name="closeDriver"/>
          <include name="LoadTestData"/>
        </methods>
      </class> <!-- testCase.TC10_SingledatePartial_WF2_Planned -->
      <class name="testCase.TC24_ContactCentreAgent_Addcomment_NotifyCustomer">
        <methods>
          <include name="verifyServiceNumber"/>
          <include name="FlushReport"/>
          <include name="launchUrl"/>
          <include name="closeDriver"/>
          <include name="LoadTestData"/>
        </methods>
      </class> <!-- testCase.TC24_ContactCentreAgent_Addcomment_NotifyCustomer -->
      <class name="testCase.TC27_Toolkit_SaveMyWork">
        <methods>
          <include name="FlushReport"/>
          <include name="verifyServiceNumber"/>
          <include name="launchUrl"/>
          <include name="closeDriver"/>
          <include name="LoadTestData"/>
        </methods>
      </class> <!-- testCase.TC27_Toolkit_SaveMyWork -->
      <class name="testCase.TC04_SingledatePartial_WF1_Planned_WithoutReAccom">
        <methods>
          <include name="verifyServiceNumber"/>
          <include name="FlushReport"/>
          <include name="launchUrl"/>
          <include name="closeDriver"/>
          <include name="LoadTestData"/>
        </methods>
      </class> <!-- testCase.TC04_SingledatePartial_WF1_Planned_WithoutReAccom -->
      <class name="testCase.TC18_SingledatePartial_WF2_Unplanned">
        <methods>
          <include name="FlushReport"/>
          <include name="serviceCancellation"/>
          <include name="launchUrl"/>
          <include name="closeDriver"/>
          <include name="LoadTestData"/>
        </methods>
      </class> <!-- testCase.TC18_SingledatePartial_WF2_Unplanned -->
      <class name="testCase.TC16_MultidatePartial_WF3_Planned">
        <methods>
          <include name="verifyServiceNumber"/>
          <include name="FlushReport"/>
          <include name="launchUrl"/>
          <include name="closeDriver"/>
          <include name="LoadTestData"/>
        </methods>
      </class> <!-- testCase.TC16_MultidatePartial_WF3_Planned -->
      <class name="testCase.TC32_Search_Assignee">
        <methods>
          <include name="FlushReport"/>
          <include name="launchUrl"/>
          <include name="closeDriver"/>
          <include name="LoadTestData"/>
          <include name="verifyServiceNumber"/>
        </methods>
      </class> <!-- testCase.TC32_Search_Assignee -->
      <class name="testCase.TC01_SingleDateFull_WF1_Planned">
        <methods>
          <include name="FlushReport"/>
          <include name="launchUrl"/>
          <include name="closeDriver"/>
          <include name="serviceCancellation"/>
          <include name="LoadTestData"/>
        </methods>
      </class> <!-- testCase.TC01_SingleDateFull_WF1_Planned -->
      <class name="testCase.TC15_MultiDateFull_WF3_Planned">
        <methods>
          <include name="FlushReport"/>
          <include name="verifyServiceNumber"/>
          <include name="launchUrl"/>
          <include name="closeDriver"/>
          <include name="LoadTestData"/>
        </methods>
      </class> <!-- testCase.TC15_MultiDateFull_WF3_Planned -->
      <class name="testCase.TC19_SingleDateFull_WF3_Unplanned">
        <methods>
          <include name="serviceCancellation"/>
          <include name="FlushReport"/>
          <include name="launchUrl"/>
          <include name="closeDriver"/>
          <include name="LoadTestData"/>
        </methods>
      </class> <!-- testCase.TC19_SingleDateFull_WF3_Unplanned -->
      <class name="testCase.TC02_SingledatePartial_WF1_Planned">
        <methods>
          <include name="FlushReport"/>
          <include name="verifyServiceNumber"/>
          <include name="launchUrl"/>
          <include name="closeDriver"/>
          <include name="LoadTestData"/>
        </methods>
      </class> <!-- testCase.TC02_SingledatePartial_WF1_Planned -->
    </classes>
  </test> <!-- Test(failed) -->
</suite> <!-- Failed suite [Suite] -->
